…
Gathering

ForestGEO datasets encode the status of each stem in the values of the column status.

select(fgeo.data::luquillo_stem5_random, status)
## # A tibble: 1,324 x 1
##    status
##    <chr> 
##  1 A     
##  2 A     
##  3 G     
##  4 G     
##  5 G     
##  6 A     
##  7 A     
##  8 A     
##  9 A     
## 10 A     
## # ... with 1,314 more rows
…
long2 <- gather(wide2, key = "status", value = "value", A, G, P)
# Sorting to better understand the point that follows
arrange(long2, treeID, stemID)
## # A tibble: 30 x 7
##    treeID stemID    gx    gy   dbh status value
##     <int>  <int> <dbl> <dbl> <dbl> <chr>  <dbl>
##  1    104    143  10.3  245. 193   A          1
##  2    104    143  10.3  245. 193   G          0
##  3    104    143  10.3  245. 193   P          0
##  4    119    158 183.   410.  40.4 A          1
##  5    119    158 183.   410.  40.4 G          0
##  6    119    158 183.   410.  40.4 P          0
##  7    180    222 165.   410.  NA   A          0
##  8    180    222 165.   410.  NA   G          1
##  9    180    222 165.   410.  NA   P          0
## 10    180    223 165.   410.  NA   A          0
## # ... with 20 more rows
…
