…
# `sinharaja::sinh_vft_20180118` is a private dataset. Instead use your data.
vft <- sinharaja::sinh_vft_20180118

Suffix dead trees on the quadrat edge

suffixed <- suffix_edge_tag(
  vft,
  .match = "dead",
  suffix = "_d",
  x_q = 20
)
#> One or more trees spillover.
# Confirm that it worked
dplyr::filter(suffixed, status == "dead", (qx > 20 | qy > 20))
#> # A tibble: 234 x 7
#>    tag         qx    qy quadratname status censusid plotid
#>    <chr>    <dbl> <dbl> <chr>       <chr>     <int>  <int>
#>  1 000956_d 20.1  11.3  0002        dead          4      1
#>  2 002646_d  2.60 20.3  0008        dead          4      1
#>  3 002735_d 20.1   7.60 0009        dead          4      1
#>  4 002930_d  6.50 20.1  0009        dead          4      1
#>  5 004025_d 20.5   3.30 0014        dead          4      1
#>  6 004146_d 20.1  19.0  0014        dead          4      1
#>  7 005841_d 20.2  16.1  0019        dead          4      1
#>  8 005843_d 20.5  16.7  0019        dead          4      1
#>  9 005845_d 20.2  17.7  0019        dead          4      1
#> 10 006135_d 20.5   2.30 0021        dead          4      1
#> # ... with 224 more rows
…
