…
Data

# `sinharaja::sinh_vft_20180118` is a private dataset. Instead use your data.
vft <- sinharaja::sinh_vft_20180118
vft <- setNames(vft, tolower(names(vft)))

# Filtering only a few quadrats for this example
tricky_quadrtat_numbers <- c("0100", "0101", "1000")
vft <- filter(vft, quadratname %in% tricky_quadrtat_numbers)
vft
#> # A tibble: 1,096 x 7
#>    tag       qx    qy quadratname status censusid plotid
#>    <chr>  <dbl> <dbl> <chr>       <chr>     <int>  <int>
#>  1 010001 0.100 0.300 0100        alive         4      1
#>  2 010002 0.100 0.500 0100        alive         4      1
#>  3 010003 0.500 0.900 0100        alive         4      1
#>  4 010004 0.600 0.900 0100        alive         4      1
#>  5 010006 0.700 3.20  0100        alive         4      1
#>  6 010007 0.200 3.70  0100        alive         4      1
#>  7 010008 0.900 4.60  0100        alive         4      1
#>  8 010009 1.20  5.00  0100        alive         4      1
#>  9 010010 2.90  4.90  0100        alive         4      1
#> 10 010011 3.90  3.90  0100        alive         4      1
#> # ... with 1,086 more rows
…
